Genomic predictions with non-additive effects • genomicMateSelectR
…
Here’s what runGenomicPredictions() returns by default.

gpredsA
#> # A tibble: 1 × 2
#>   gblups             genomicPredOut  
#>   <list>             <list>          
#> 1 <tibble [300 × 5]> <tibble [2 × 4]>

The first element gblups is a tibble with genomic BLUPs (GEBV in this case) for each trait, and since we supplied SIwts, the GEBV computed on the selection index, labeled SELIND.

gpredsA$gblups[[1]]
#> # A tibble: 300 × 5
#>    GID   predOf SELIND Trait1  Trait2
#>    <chr> <chr>   <dbl>  <dbl>   <dbl>
#>  1 1     GEBV   -0.994 -1.48   0.454 
#>  2 2     GEBV   -0.428 -1.07   1.49  
#>  3 3     GEBV   -0.474 -0.589 -0.130 
#>  4 4     GEBV   -0.735 -0.741 -0.719 
#>  5 5     GEBV   -0.432 -0.561 -0.0445
#>  6 6     GEBV   -0.731 -1.13   0.456 
#>  7 7     GEBV   -1.14  -1.57   0.163 
#>  8 8     GEBV    0.444  0.422  0.511 
#>  9 9     GEBV   -0.654 -1.42   1.64  
#> 10 10    GEBV   -0.656 -0.461 -1.24  
#> # … with 290 more rows
…
