Getting started predicting crosses • genomicMateSelectR
…
Produces a single-row tibble (basically a 2 element list) with two columns tidyPreds and rawPreds.

crossPreds
#> # A tibble: 1 × 2
#>   tidyPreds         rawPreds        
#>   <list>            <list>          
#> 1 <tibble [45 × 9]> <named list [2]>

Most users and breeders will work with the tidyPreds. This simplified output was designed especially for those interested in selections based on SELIND.

Each row contains relevant predictions for a single trait in a single cross. Trait covariances are excluded from this output in order to show both mean (predMean), variance / standard deviation (predVar, predSD) and usefulness (predUsefulness) side-by-side.

crossPreds$tidyPreds[[1]]
#> # A tibble: 45 × 9
#>    sireID damID Nsegsnps predOf Trait  predMean predVar predSD predUsefulness
#>    <chr>  <chr>    <int> <chr>  <chr>     <dbl>   <dbl>  <dbl>          <dbl>
#>  1 49     49          22 BV     SELIND    115.     361.   19.0         166.  
#>  2 49     49          22 BV     Trait1    194.     707.   26.6         265.  
#>  3 49     49          22 BV     Trait2   -119.    1519.   39.0         -15.1 
#>  4 49     153         46 BV     SELIND    108.     454.   21.3         165.  
#>  5 49     153         46 BV     Trait1    174.    1079.   32.8         262.  
#>  6 49     153         46 BV     Trait2    -89.4   1813.   42.6          24.3 
#>  7 49     74          48 BV     SELIND     97.5    458.   21.4         155.  
#>  8 49     74          48 BV     Trait1    165.     974.   31.2         249.  
#>  9 49     74          48 BV     Trait2   -106.    1510.   38.9          -2.05
#> 10 49     228         53 BV     SELIND     97.3    536.   23.2         159.  
#> # … with 35 more rows
…
